Get Kaya data for one or more countries or regions — get_kaya_data • kayadata
…
     Energy-related values (_E_, _F_, and derived quantities) are
     available from 1965 onward.

     Note that emissions (_F_, _f_, and _ef_) are reported as millions
     of metric tons of carbon dioxide, not carbon.

    See also

    regions

    Examples

get_kaya_data("Brazil")
#> # A tibble: 62 × 10
#>    region  year     P     G     E     F     g     e     f    ef
#>    <ord>  <int> <dbl> <dbl> <dbl> <dbl> <dbl> <dbl> <dbl> <dbl>
#>  1 Brazil  2021 0.214  1.83  11.9  437.  8.55  6.51  36.7  239.
#>  2 Brazil  2020 0.213  1.75  11.4  391.  8.23  6.50  34.3  223.
#>  3 Brazil  2019 0.211  1.82  11.9  425.  8.62  6.54  35.7  234.
#>  4 Brazil  2018 0.209  1.80  11.7  428.  8.58  6.49  36.7  238.
#>  5 Brazil  2017 0.208  1.77  11.6  446.  8.50  6.58  38.4  253.
#>  6 Brazil  2016 0.206  1.74  11.5  441.  8.46  6.59  38.4  253.
#>  7 Brazil  2015 0.204  1.80  11.8  477.  8.81  6.52  40.6  264.
#>  8 Brazil  2014 0.203  1.87  12.1  505.  9.21  6.46  41.9  270.
#>  9 Brazil  2013 0.201  1.86  11.8  483.  9.25  6.34  41.0  260.
#> 10 Brazil  2012 0.199  1.80  11.4  445.  9.06  6.31  39.0  246.
#> # … with 52 more rows
#> # ℹ Use `print(n = ...)` to see more rows
get_kaya_data("United Kingdom", "PPP")
#> # A tibble: 62 × 10
#>    region          year      P     G     E     F     g     e     f    ef
#>    <ord>          <int>  <dbl> <dbl> <dbl> <dbl> <dbl> <dbl> <dbl> <dbl>
#>  1 United Kingdom  2021 0.0673  3.09  6.80  338.  45.8  2.20  49.6  109.
#>  2 United Kingdom  2020 0.0671  2.87  6.69  317.  42.8  2.33  47.4  110.
#>  3 United Kingdom  2019 0.0668  3.17  7.46  377.  47.4  2.36  50.6  119.
#>  4 United Kingdom  2018 0.0665  3.11  7.64  393.  46.9  2.45  51.5  126.
#>  5 United Kingdom  2017 0.0661  3.06  7.67  401.  46.4  2.50  52.3  131.
#>  6 United Kingdom  2016 0.0656  3.00  7.69  414.  45.7  2.56  53.8  138.
#>  7 United Kingdom  2015 0.0651  2.93  7.77  438.  45.0  2.65  56.3  149.
#>  8 United Kingdom  2014 0.0646  2.86  7.66  456.  44.2  2.68  59.5  160.
#>  9 United Kingdom  2013 0.0641  2.77  8.11  498.  43.3  2.92  61.4  179.
#> 10 United Kingdom  2012 0.0637  2.72  8.14  510.  42.8  2.99  62.7  187.
#> # … with 52 more rows
#> # ℹ Use `print(n = ...)` to see more rows
get_kaya_data(region_name = "United States")
#> # A tibble: 62 × 10
#>    region         year     P     G     E     F     g     e     f    ef
#>    <ord>         <int> <dbl> <dbl> <dbl> <dbl> <dbl> <dbl> <dbl> <dbl>
#>  1 United States  2021 0.332  20.3  88.1 4701.  61.3  4.33  53.3  231.
#>  2 United States  2020 0.332  19.2  83.9 4421.  58.1  4.36  52.7  230.
#>  3 United States  2019 0.328  19.9  90.7 4981.  60.7  4.55  54.9  250.
#>  4 United States  2018 0.327  19.5  91.3 5133.  59.6  4.69  56.2  263.
#>  5 United States  2017 0.325  18.9  88.1 4979.  58.2  4.65  56.5  263.
#>  6 United States  2016 0.323  18.5  87.8 5038.  57.3  4.74  57.4  272.
#>  7 United States  2015 0.321  18.2  87.9 5137.  56.8  4.83  58.5  282.
#>  8 United States  2014 0.318  17.7  88.7 5252.  55.7  5.00  59.2  296.
#>  9 United States  2013 0.316  17.3  87.8 5247.  54.8  5.07  59.8  303.
#> 10 United States  2012 0.314  17.0  85.5 5089.  54.2  5.02  59.5  299.
#> # … with 52 more rows
#> # ℹ Use `print(n = ...)` to see more rows
get_kaya_data(region_code = "MYS")
#> # A tibble: 62 × 10
#>    region    year      P     G     E     F     g     e     f    ef
#>    <ord>    <int>  <dbl> <dbl> <dbl> <dbl> <dbl> <dbl> <dbl> <dbl>
#>  1 Malaysia  2021 0.0328 0.355  3.97  239. 10.8   11.2  60.1  672.
#>  2 Malaysia  2020 0.0324 0.344  3.89  241. 10.6   11.3  61.9  699.
#>  3 Malaysia  2019 0.0319 0.365  4.24  257. 11.4   11.6  60.6  704.
#>  4 Malaysia  2018 0.0315 0.349  4.13  251. 11.1   11.8  60.9  719.
#>  5 Malaysia  2017 0.0311 0.333  4.05  241. 10.7   12.2  59.5  724.
#>  6 Malaysia  2016 0.0307 0.315  4.00  253. 10.3   12.7  63.1  802.
#>  7 Malaysia  2015 0.0303 0.301  3.80  247.  9.96  12.6  65.0  820.
#>  8 Malaysia  2014 0.0299 0.287  3.74  243.  9.60  13.1  64.9  848.
#>  9 Malaysia  2013 0.0295 0.271  3.71  234.  9.18  13.7  63.1  865.
#> 10 Malaysia  2012 0.0291 0.258  3.54  228.  8.89  13.7  64.3  881.
#> # … with 52 more rows
#> # ℹ Use `print(n = ...)` to see more rows
…
