Get Kaya data for one or more countries or regions — get_kaya_data • kayadata
…
     Energy-related values (_E_, _F_, and derived quantities) are
     available from 1965 onward.

     Note that emissions (_F_, _f_, and _ef_) are reported as millions
     of metric tons of carbon dioxide, not carbon.

    See also

    regions

    Examples

get_kaya_data("Brazil")

#> # A tibble: 60 × 10
#>    region  year     P     G     E     F     g     e     f    ef
#>    <ord>  <int> <dbl> <dbl> <dbl> <dbl> <dbl> <dbl> <dbl> <dbl>
#>  1 Brazil  2019 0.211  2.35  11.8  441.  11.1  5.01  37.5  188.
#>  2 Brazil  2018 0.209  2.32  11.5  442.  11.1  4.96  38.5  191.
#>  3 Brazil  2017 0.208  2.29  11.4  457.  11.0  4.99  40.0  200.
#>  4 Brazil  2016 0.206  2.26  11.3  450.  11.0  5.00  39.9  199.
#>  5 Brazil  2015 0.204  2.34  11.6  487.  11.4  4.96  42.0  208.
#>  6 Brazil  2014 0.203  2.42  11.8  504.  12.0  4.85  42.9  208.
#>  7 Brazil  2013 0.201  2.41  11.5  483.  12.0  4.77  42.0  200.
#>  8 Brazil  2012 0.199  2.34  11.1  443.  11.7  4.73  40.0  189.
#>  9 Brazil  2011 0.198  2.30  10.9  424.  11.6  4.74  38.9  185.
#> 10 Brazil  2010 0.196  2.21  10.4  398.  11.3  4.71  38.3  180.
#> # … with 50 more rows
get_kaya_data("United Kingdom", "PPP")

#> # A tibble: 60 × 10
#>    region          year      P     G     E     F     g     e     f    ef
#>    <ord>          <int>  <dbl> <dbl> <dbl> <dbl> <dbl> <dbl> <dbl> <dbl>
#>  1 United Kingdom  2019 0.0668  3.12  7.43  387.  46.7  2.38  52.1  124.
#>  2 United Kingdom  2018 0.0665  3.08  7.55  397.  46.3  2.45  52.6  129.
#>  3 United Kingdom  2017 0.0661  3.04  7.57  404.  46.0  2.49  53.4  133.
#>  4 United Kingdom  2016 0.0656  2.98  7.60  416.  45.4  2.55  54.7  139.
#>  5 United Kingdom  2015 0.0651  2.92  7.69  440.  44.9  2.63  57.2  150.
#>  6 United Kingdom  2014 0.0646  2.86  7.60  458.  44.2  2.66  60.3  160.
#>  7 United Kingdom  2013 0.0641  2.78  8.07  500.  43.4  2.90  62.0  180.
#>  8 United Kingdom  2012 0.0637  2.73  8.11  512.  42.8  2.97  63.2  188.
#>  9 United Kingdom  2011 0.0633  2.69  8.01  496.  42.5  2.98  61.9  184.
#> 10 United Kingdom  2010 0.0628  2.65  8.47  530.  42.2  3.20  62.6  200.
#> # … with 50 more rows
get_kaya_data(region_name = "United States")

#> # A tibble: 60 × 10
#>    region         year     P     G     E     F     g     e     f    ef
#>    <ord>         <int> <dbl> <dbl> <dbl> <dbl> <dbl> <dbl> <dbl> <dbl>
#>  1 United States  2019 0.328  18.3  89.7 4965.  55.8  4.90  55.3  271.
#>  2 United States  2018 0.327  17.9  90.6 5117.  54.8  5.06  56.5  286.
#>  3 United States  2017 0.325  17.3  87.5 4984.  53.4  5.04  57.0  287.
#>  4 United States  2016 0.323  17.0  87.2 5042.  52.6  5.14  57.8  297.
#>  5 United States  2015 0.321  16.7  87.3 5141.  52.1  5.23  58.9  308.
#>  6 United States  2014 0.318  16.2  88.2 5255.  51.0  5.43  59.6  324.
#>  7 United States  2013 0.316  15.9  87.3 5250.  50.2  5.51  60.1  331.
#>  8 United States  2012 0.314  15.6  85.0 5090.  49.6  5.46  59.9  327.
#>  9 United States  2011 0.312  15.2  87.3 5336.  48.9  5.73  61.1  351.
#> 10 United States  2010 0.309  15.0  88.1 5486.  48.5  5.88  62.3  366.
#> # … with 50 more rows
get_kaya_data(region_code = "MYS")

#> # A tibble: 60 × 10
#>    region    year      P     G     E     F     g     e     f    ef
#>    <ord>    <int>  <dbl> <dbl> <dbl> <dbl> <dbl> <dbl> <dbl> <dbl>
#>  1 Malaysia  2019 0.0319 0.399  4.04  244. 12.5   10.1  60.5  613.
#>  2 Malaysia  2018 0.0315 0.382  3.99  243. 12.1   10.4  61.0  637.
#>  3 Malaysia  2017 0.0311 0.365  4.05  241. 11.7   11.1  59.6  662.
#>  4 Malaysia  2016 0.0307 0.345  3.99  251. 11.2   11.6  63.0  729.
#>  5 Malaysia  2015 0.0303 0.330  3.79  246. 10.9   11.5  64.9  744.
#>  6 Malaysia  2014 0.0299 0.314  3.73  242. 10.5   11.9  64.9  771.
#>  7 Malaysia  2013 0.0295 0.297  3.70  233. 10.1   12.5  63.1  786.
#>  8 Malaysia  2012 0.0291 0.283  3.53  227.  9.74  12.5  64.2  801.
#>  9 Malaysia  2011 0.0287 0.269  3.29  214.  9.37  12.2  65.0  796.
#> 10 Malaysia  2010 0.0282 0.255  3.18  213.  9.04  12.5  67.1  835.
#> # … with 50 more rows
…
